Data Analysis in Social Science 3
…
##       pidp a_dvage a_sex a_vote6 b_dvage b_sex b_vote6
## 1 68001367      39     1       3      NA    NA      NA
## 2 68004087      59     1       2      60     1       2

Exercise. Reshape the full UndSoc data frame from wide to long format. Call the object where you will store the result UndSocLong.

Solution:

UndSocLong <- UndSoc %>%
  gather(a_sex:g_vote6, key = "variable", value = "value") %>%
  separate(variable, into = c("wave", "variable"), sep = "_") %>%
  spread(key = variable, value = value)
UndSocLong

## # A tibble: 584,703 x 5
##     pidp  wave dvage   sex vote6
##  * <int> <chr> <int> <int> <int>
##  1 22445     a    NA    NA    NA
##  2 22445     b    NA    NA    NA
##  3 22445     c    NA    NA    NA
##  4 22445     d    27     2     2
##  5 22445     e    28     2     2
##  6 22445     f    29     2     2
##  7 22445     g    30     2     1
##  8 29925     a    NA    NA    NA
##  9 29925     b    NA    NA    NA
## 10 29925     c    NA    NA    NA
## # ... with 584,693 more rows
…
## 
##      1      2      3      4 
##  30981 102212  86790  84351

We may also want to code sex as “male” and “female” and assign meaningful labels to vote6 converting these variables into factors.

UndSocLongClean <- UndSocLong %>%
  mutate(sex = recode(sex, "1" = "male", "2" = "female")) %>%
  mutate(vote6 = recode(vote6, "1" = "very", "2" = "fairly", "3" = "not very", "4" = "not al all")) %>%
  mutate(sex = factor(sex)) %>%
  mutate(vote6 = factor(vote6))
UndSocLongClean

## # A tibble: 584,703 x 5
##     pidp  wave dvage    sex  vote6
##    <int> <chr> <int> <fctr> <fctr>
##  1 22445     a    NA   <NA>   <NA>
##  2 22445     b    NA   <NA>   <NA>
##  3 22445     c    NA   <NA>   <NA>
##  4 22445     d    27 female fairly
##  5 22445     e    28 female fairly
##  6 22445     f    29 female fairly
##  7 22445     g    30 female   very
##  8 29925     a    NA   <NA>   <NA>
##  9 29925     b    NA   <NA>   <NA>
## 10 29925     c    NA   <NA>   <NA>
## # ... with 584,693 more rows
…
